…
``` r
bday_sim_results
```

    ## # A tibble: 49 × 2
    ##    bdays prob_repeat
    ##    <int>       <dbl>
    ##  1     2      0.003 
    ##  2     3      0.0087
    ##  3     4      0.0172
    ##  4     5      0.0286
    ##  5     6      0.0399
    ##  6     7      0.0544
    ##  7     8      0.0757
    ##  8     9      0.097 
    ##  9    10      0.118 
    ## 10    11      0.141 
    ## # ℹ 39 more rows
…
``` r
city_results_tidy = 
  city_results |>
  mutate(
    tidy_res = map(test_result, broom::tidy)
  ) |>
  unnest(tidy_res) |> 
  select(city_state, total_homicides, unsolved_homicides, estimate, conf.low, conf.high)
city_results_tidy
```

    ## # A tibble: 51 × 6
    ##    city_state     total_homicides unsolved_homicides estimate conf.low conf.high
    ##    <chr>                    <int>              <dbl>    <dbl>    <dbl>     <dbl>
    ##  1 Albuquerque, …             378                146    0.386    0.337     0.438
    ##  2 Atlanta, GA                973                373    0.383    0.353     0.415
    ##  3 Baltimore, MD             2827               1825    0.646    0.628     0.663
    ##  4 Baton Rouge, …             424                196    0.462    0.414     0.511
    ##  5 Birmingham, AL             800                347    0.434    0.399     0.469
    ##  6 Boston, MA                 614                310    0.505    0.465     0.545
    ##  7 Buffalo, NY                521                319    0.612    0.569     0.654
    ##  8 Charlotte, NC              687                206    0.300    0.266     0.336
    ##  9 Chicago, IL               5535               4073    0.736    0.724     0.747
    ## 10 Cincinnati, OH             694                309    0.445    0.408     0.483
    ## # ℹ 41 more rows
…
